first_statement;first_aspect;second_statement;second_aspect
"Saya seorang pekerja keras";"G";"Saya bukan seorang pemurung";"E"
"Saya suka bekerja lebih baik dari orang lain";"A";"Saya suka mengerjakan apa yang sedang saya kerjakan, sampai selesai";"N"
"Saya suka menunjukkan caranya melaksanakan sesuatu hal";"P";"Saya ingin bekerja sebaik mungkin";"A"
"Saya suka berkelakar";"X";"Saya senang mengatakan kepada orang lain, apa yang harus dilakukannya";"P"
"Saya suka menggabungkan diri dengan kelompok-kelompok";"B";"Saya suka diperhatikan oleh kelompok-kelompok";"X"
"Saya senang bersahabat intim dengan seseorang";"O";"Saya senang bersahabat dengan sekelompok orang";"B"
"Saya cepat berubah bila hal itu diperlukan";"Z";"Saya berusaha untuk intim dengan teman-teman";"O"
"Saya suka membalas dendam bila saya benar-benar disakiti";"K";"Saya suka melakukan hal-hal yang baru dan berbeda";"Z"
"Saya ingin atasan saya menyukai saya";"F";"Saya suka mengatakan kepada orang lain, bila mereka salah";"K"
"Saya suka mengikuti perintah-perintah yang diberikan kepada saya";"W";"Saya suka menyenangkan hati orang yang memimpin saya";"F"
"Saya mencoba sekuat tenaga";"G";"Saya seorang yang tertib.";"C"
"Saya membuat orang lain melakukan apa yang saya inginkan";"L";"Saya bukan seorang yang cepat gusar";"E"
"Saya suka mengatakan kepada kelompok, apa yang harus dilakukan";"P";"Saya menekuni satu pekerjaan sampai selesai";"N"
"Saya ingin tampak bersemangat dan menarik";"X";"Saya ingin menjadi sangat sukses";"A"
"Saya suka menyelaraskan diri dengan kelompok";"B";"Saya suka membantu orang lain menentukan pendapatnya";"P"
"Saya cemas kalau orang lain tidak menyukai saya";"O";"Saya senang kalau orang-orang memperhatikan saya";"X"
"Saya suka mencoba sesuatu yang baru";"Z";"Saya lebih suka bekerja bersama orang-orang daripada bekerja sendiri";"B"
"Kadang-kadang saya menyalahkan orang lain bila tejadi sesuatu kesalahan";"K";"Saya cemas bila seseorang tidak menyukai saya";"O"
"Saya suka menyenangkan hati orang yang memimpin saya";"F";"Saya suka mencoba pekerjaan-pekerjaan yang baru dan berbeda";"Z"
"Saya menyukai petunjuk yang terinci untuk melakukan sesuatu pekerjaan";"W";"Saya suka mengatakan kepada orang lain bila mengganggu saya";"K"
"Saya selalu mencoba sekuat tenaga";"G";"Saya senang bekerja dengan sangat cermat dan hati-hati";"D"
"Saya adalah seorang pemimpin yang baik";"L";"Saya mengorganisir tugas-tugas secara baik";"C"
"Saya mudah menjadi gusar";"I";"Saya seorang yang lambat dalam membuat keputusan";"E"
"Saya senang mengerjakan beberapa pekerjaan pada waktu yang bersamaan";"X";"Bila di dalam kelompok, saya lebih suka diam";"N"
"Saya senang bila diundang";"B";"Saya ingin melakukan sesuatu lebih baik dari orang lain";"A"
"Saya suka berteman intim dengan teman-teman saya";"O";"Saya suka memberi nasihat kepada orang lain";"P"
"Saya suka melakukan hal-hal yang baru dan berbeda";"Z";"Saya suka menceritakan keberhasilan saya dalam mengerjakan tugas";"X"
"Bila saya benar, saya suka mempertahankannya mati-matian";"K";"Saya suka bergabung ke dalam suatu kelompok";"B"
"Saya tidak mau berbeda dengan orang lain";"F";"Saya berusaha untuk sangat intim dengan orang-orang";"O"
"Saya suka diajari mengenai caranya mengerjakan suatu pekerjaan";"W";"Saya mudah merasa jemu (bosan)";"Z"
"Saya bekerja keras";"G";"Saya banyak berpikir dan berencana";"R"
"Saya memimpin kelompok";"L";"Hal-hal yang kecil (detail) menarik hati saya";"D"
"Saya cepat dan mudah mengambil keputusan";"I";"Saya melakukan segala sesuatu secara rapih dan teratur";"C"
"Tugas-tugas saya kerjakan secara cepat";"T";"Saya jarang marah atau sedih";"E"
"Saya ingin menjadi bagian dari kelompok";"B";"Pada suatu waktu tertentu, saya hanya ingin mengerjakan satu tugas saja";"N"
"Saya berusaha untuk intim dengan teman-teman saya";"O";"Saya berusaha keras untuk menjadi yang terbaik";"A"
"Saya menyukai mode baju baru dan tipe-tipe mobil baru";"Z";"Saya ingin menjadi penanggung jawab bagi orang-orang lain";"P"
"Saya suka berdebat";"K";"Saya ingin diperhatikan";"X"
"Saya suka menyenangkan hati orang yang memimpin saya";"F";"Saya tertarik menjadi anggota dari suatu kelompok";"B"
"Saya senang mengikuti aturan secara tertib";"W";"Saya suka orang-orang mengenal saya benar-benar";"O"
"Saya mencoba sekuat tenaga";"G";"Saya sangat menyenangkan";"S"
"Orang lain beranggapan bahwa saya adalah seorang pemimpin yang baik";"L";"Saya berpikir jauh ke depan dan terinci";"R"
"Seringkali saya memanfaatkan peluang";"I";"Saya senang memperhatikan hal-hal sampai sekecil-kecilnya";"D"
"Orang lain menganggap saya bekerja cepat";"T";"Orang lain menganggap saya dapat melakukan penataan yang rapi dan teratur";"C"
"Saya menyukai permainan-permainan dan olahraga";"V";"Saya sangat menyenangkan";"E"
"Saya senang bila orang-orang dapat intim dan bersahabat";"O";"Saya selalu berusaha menyelesaikan apa yang telah saya mulai";"N"
"Saya suka bereksperimen dan mencoba sesuatu yang baru";"Z";"Saya suka mengerjakan pekerjaan-pekerjaan yang sulit dengan baik";"A"
"Saya senang diperlakukan secara adil";"K";"Saya senang mengajari orang lain bagaimana caranya mengerjakan sesuatu";"P"
"Saya suka mengerjakan apa yang diharapkan dari saya";"F";"Saya suka menarik perhatian";"X"
"Saya suka petunjuk-petunjuk terinci dalam melakukan sesuatu pekerjaan";"W";"Saya senang berada bersama dengan orang-orang lain";"B"
"Saya selalu berusaha mengerjakan tugas secara sempurna";"G";"Orang lain menganggap, saya tidak mengenal lelah, dalam kerja sehari-hari";"V"
"Saya tergolong tipe pemimpin";"L";"Saya mudah berteman";"S"
"Saya memanfaatkan peluang-peluang";"I";"Saya banyak berfikir";"R"
"Saya bekerja dengan kecepatan yang mantap dan cepat";"T";"Saya senang mengerjakan hal-hal yang detail";"D"
"Saya memliki banyak energi untuk permainan-permainan dan olahraga";"V";"Saya menempatkan segala sesuatunya secara rapih dan teratur";"C"
"Saya bergaul baik dengan semua orang";"S";"Saya pandai mengendalikan diri";"E"
"Saya ingin berkenalan dengan orang-orang baru dan mengerjakan hal baru";"Z";"Saya selalu ingin menyelesaikan pekerjaan yang sudah saya mulai";"N"
"Biasanya saya bersikeras mengenai apa yang saya yakini";"K";"Biasanya saya suka bekerja keras";"A"
"Saya menyukai saran-saran dari orang-orang yang saya kagumi";"F";"Saya senang mengatur orang lain";"P"
"Saya biarkan orang-orang lain mepengaruhi saya";"W";"Saya suka menerima banyak perhatian";"X"
"Biasanya saya bekerja sangat keras";"G";"Biasanya saya bekerja cepat";"T"
"Bila saya berbicara, kelompok akan mendengarkan";"L";"Saya terampil mempergunakan alat-alat kerja";"V"
"Saya lambat membina persahabatan";"I";"Saya lambat dalam mengambil keputusan";"S"
"Biasanya saya makan secara cepat";"T";"Saya suka membaca";"R"
"Saya menyukai pekerjaan yang memungkinkan saya berkeliling";"V";"Saya menyukai pekerjaan yang harus dilakukan secara teliti";"D"
"Saya berteman sebanyak mungkin";"S";"Saya dapat menemukan hal-hal yang telah saya pindahkan";"C"
"Perencanaan saya jauh ke masa depan";"R";"Saya selalu menyenangkan";"E"
"Saya merasa bangga akan nama baik saya";"K";"Saya tetap menekuni satu permasalahan sampai ia terselesaikan";"N"
"Saya suka menyenangkan hati orang-orang yang saya kagumi";"F";"Saya suka menjadi seorang yang berhasil";"A"
"Saya senang bila orang-orang lain mengambil keputusan untuk kelompok";"W";"Saya suka mengambil keputusan untuk kelompok";"P"
"Saya selalu berusaha sangat keras";"G";"Saya cepat dan mudah mengambil keputusan";"I"
"Biasanya kelompok saya mengerjakan hal-hal yang saya inginkan";"L";"Biasanya saya tergesa-gesa";"T"
"Saya seringkali merasa lelah";"I";"Saya lambat dalam mengambil keputusan";"V"
"Saya bekerja secara cepat";"T";"Saya mudah mendapat kawan";"S"
"Biasanya saya bersemangat atau bergairah";"V";"Sebagian besar waktu saya untuk berpikir";"R"
"Saya sangat hangat kepada orang-orang";"S";"Saya menyukai pekerjaan yang menuntut ketepatan";"D"
"Saya banyak berpikir dan merencana";"R";"Saya meletakkan segala sesuatu pada tempatnya";"C"
"Saya suka tugas yang perlu ditekuni sampai kepada hal sedetilnya";"D";"Saya tidak cepat marah";"E"
"Saya senang mengikuti orang-orang yang saya kagumi";"F";"Saya selalu menyelesaikan pekerjaan yang saya mulai";"N"
"Saya menyukai petunjuk-petunjuk yang jelas";"W";"Saya suka bekerja keras";"A"
"Saya mengejar apa yang saya inginkan";"G";"Saya adalah seorang pemimpin yang baik";"L"
"Saya membuat orang lain bekerja keras";"L";"Saya adalah seorang yang gampangan (tak banyak pertimbangan)";"I"
"Saya membuat keputusan-keputusan secara cepat";"I";"Bicara saya cepat";"T"
"Biasanya saya bekerja tergesa-gesa";"T";"Secara teratur saya berolahraga";"V"
"Saya tidak suka bertemu dengan orang-orang";"V";"Saya cepat lelah";"S"
"Saya mempunyai banyak sekali teman";"S";"Banyak waktu saya untuk berfikir";"R"
"Saya suka bekerja dengan teori";"R";"Saya suka bekerja sedetil-detilnya";"D"
"Saya suka bekerja sampai sedetil-detilnaya";"D";"Saya suka mengorganisir pekerjaan saya";"C"
"Saya meletakkan segala sesuatu pada tempatnya";"C";"Saya selalu menyenangkan";"E"
"Saya senang diberi petunjuk mengenai apa yang harus saya lakukan";"W";"Saya harus menyelesaikan apa yang sudah saya mulai";"N"