id;name;number_of_questions;time_limit;type;status;parent_id
"1";"Tes IQ";"4";"750";"";"1";""
"2";"Tes Papi Kostick";"90";"1200";"";"1";""
"3";"Tes DISC";"24";"300";"";"1";""
"4";"Tes Administrasi (Excel)";"";"180";"";"1";""
"5";"Tes Ketik";"";"180";"";"1";""
"6";"Test Deret Angka (Kraepelin)";"";"180";"";"1";""
"7";"Tes IQ";"12";"180";"Series";"1";"1"
"8";"Tes IQ";"14";"240";"Classification";"1";"1"
"9";"Tes IQ";"12";"180";"Matrices";"1";"1"
"10";"Tes IQ";"8";"150";"Conditions / Topology";"1";"1"